%YAML 1.1
%TAG !u! tag:unity3d.com,2011:
--- !u!114 &11400000
MonoBehaviour:
  m_ObjectHideFlags: 0
  m_CorrespondingSourceObject: {fileID: 0}
  m_PrefabInstance: {fileID: 0}
  m_PrefabAsset: {fileID: 0}
  m_GameObject: {fileID: 0}
  m_Enabled: 1
  m_EditorHideFlags: 0
  m_Script: {fileID: 11500000, guid: bbb281ee3bf0b054c82ac2347e9e782c, type: 3}
  m_Name: Tiles
  m_EditorClassIdentifier: 
  m_GroupName: Tiles
  m_Data:
    m_SerializedData: []
  m_GUID: e8162dac082580f4e9f1466f8d92d568
  m_SerializeEntries:
  - m_GUID: 0c1bab5a7b906464f908ce522cdbffd0
    m_Address: Grass_Tile_Default
    m_ReadOnly: 0
    m_SerializedLabels: []
  - m_GUID: 77430d97e5550884594163ad25c2329a
    m_Address: Dirt_Tile_Default
    m_ReadOnly: 0
    m_SerializedLabels: []
  - m_GUID: b42306ea693166e4bbc882648d06d602
    m_Address: Snow_Tile_Default
    m_ReadOnly: 0
    m_SerializedLabels: []
  m_ReadOnly: 0
  m_Settings: {fileID: 11400000, guid: af78f6a22f2dc3b4a9522bc5f9a968d0, type: 2}
  m_SchemaSet:
    m_Schemas:
    - {fileID: 11400000, guid: 2d1d693003ee0934cb59f002ff6ea7d6, type: 2}
    - {fileID: 11400000, guid: 1c43ea7b89709da48b24e6b7604cef73, type: 2}
