%YAML 1.1
%TAG !u! tag:unity3d.com,2011:
--- !u!1001 &2169305993786497172
PrefabInstance:
  m_ObjectHideFlags: 0
  serializedVersion: 2
  m_Modification:
    m_TransformParent: {fileID: 0}
    m_Modifications:
    - target: {fileID: 3138597901136315538, guid: 413468723f91ce9418cfc592a7287492,
        type: 3}
      propertyPath: m_AnchoredPosition.x
      value: 0
      objectReference: {fileID: 0}
    - target: {fileID: 3138597901136315538, guid: 413468723f91ce9418cfc592a7287492,
        type: 3}
      propertyPath: m_AnchoredPosition.y
      value: 0.25793457
      objectReference: {fileID: 0}
    - target: {fileID: 6067298152578125788, guid: 413468723f91ce9418cfc592a7287492,
        type: 3}
      propertyPath: m_AnchoredPosition.x
      value: 0.5
      objectReference: {fileID: 0}
    - target: {fileID: 6067298152578125788, guid: 413468723f91ce9418cfc592a7287492,
        type: 3}
      propertyPath: m_AnchoredPosition.y
      value: -0.6999512
      objectReference: {fileID: 0}
    - target: {fileID: 6067298152578125791, guid: 413468723f91ce9418cfc592a7287492,
        type: 3}
      propertyPath: m_Color.r
      value: 0.8018868
      objectReference: {fileID: 0}
    - target: {fileID: 6067298152578125791, guid: 413468723f91ce9418cfc592a7287492,
        type: 3}
      propertyPath: m_Color.b
      value: 0.04160734
      objectReference: {fileID: 0}
    - target: {fileID: 6067298152578125791, guid: 413468723f91ce9418cfc592a7287492,
        type: 3}
      propertyPath: m_Color.g
      value: 0.15709579
      objectReference: {fileID: 0}
    - target: {fileID: 6067298152650821734, guid: 413468723f91ce9418cfc592a7287492,
        type: 3}
      propertyPath: m_Name
      value: ContextButton (Sell Tower)
      objectReference: {fileID: 0}
    - target: {fileID: 6067298152650821753, guid: 413468723f91ce9418cfc592a7287492,
        type: 3}
      propertyPath: m_LocalPosition.x
      value: 0
      objectReference: {fileID: 0}
    - target: {fileID: 6067298152650821753, guid: 413468723f91ce9418cfc592a7287492,
        type: 3}
      propertyPath: m_LocalPosition.y
      value: 0
      objectReference: {fileID: 0}
    - target: {fileID: 6067298152650821753, guid: 413468723f91ce9418cfc592a7287492,
        type: 3}
      propertyPath: m_LocalPosition.z
      value: 0
      objectReference: {fileID: 0}
    - target: {fileID: 6067298152650821753, guid: 413468723f91ce9418cfc592a7287492,
        type: 3}
      propertyPath: m_LocalRotation.x
      value: 0
      objectReference: {fileID: 0}
    - target: {fileID: 6067298152650821753, guid: 413468723f91ce9418cfc592a7287492,
        type: 3}
      propertyPath: m_LocalRotation.y
      value: 0
      objectReference: {fileID: 0}
    - target: {fileID: 6067298152650821753, guid: 413468723f91ce9418cfc592a7287492,
        type: 3}
      propertyPath: m_LocalRotation.z
      value: 0
      objectReference: {fileID: 0}
    - target: {fileID: 6067298152650821753, guid: 413468723f91ce9418cfc592a7287492,
        type: 3}
      propertyPath: m_LocalRotation.w
      value: 1
      objectReference: {fileID: 0}
    - target: {fileID: 6067298152650821753, guid: 413468723f91ce9418cfc592a7287492,
        type: 3}
      propertyPath: m_RootOrder
      value: 0
      objectReference: {fileID: 0}
    - target: {fileID: 6067298152650821753, guid: 413468723f91ce9418cfc592a7287492,
        type: 3}
      propertyPath: m_LocalEulerAnglesHint.x
      value: 0
      objectReference: {fileID: 0}
    - target: {fileID: 6067298152650821753, guid: 413468723f91ce9418cfc592a7287492,
        type: 3}
      propertyPath: m_LocalEulerAnglesHint.y
      value: 0
      objectReference: {fileID: 0}
    - target: {fileID: 6067298152650821753, guid: 413468723f91ce9418cfc592a7287492,
        type: 3}
      propertyPath: m_LocalEulerAnglesHint.z
      value: 0
      objectReference: {fileID: 0}
    - target: {fileID: 6067298152650821753, guid: 413468723f91ce9418cfc592a7287492,
        type: 3}
      propertyPath: m_AnchoredPosition.x
      value: 0.05596924
      objectReference: {fileID: 0}
    - target: {fileID: 6067298152650821753, guid: 413468723f91ce9418cfc592a7287492,
        type: 3}
      propertyPath: m_AnchoredPosition.y
      value: -0.000061035156
      objectReference: {fileID: 0}
    - target: {fileID: 6067298152650821753, guid: 413468723f91ce9418cfc592a7287492,
        type: 3}
      propertyPath: m_SizeDelta.x
      value: 0.111968994
      objectReference: {fileID: 0}
    - target: {fileID: 6067298152650821753, guid: 413468723f91ce9418cfc592a7287492,
        type: 3}
      propertyPath: m_SizeDelta.y
      value: -0.29508972
      objectReference: {fileID: 0}
    - target: {fileID: 6067298152650821753, guid: 413468723f91ce9418cfc592a7287492,
        type: 3}
      propertyPath: m_AnchorMin.x
      value: 0.41300002
      objectReference: {fileID: 0}
    - target: {fileID: 6067298152650821753, guid: 413468723f91ce9418cfc592a7287492,
        type: 3}
      propertyPath: m_AnchorMin.y
      value: 0.47452086
      objectReference: {fileID: 0}
    - target: {fileID: 6067298152650821753, guid: 413468723f91ce9418cfc592a7287492,
        type: 3}
      propertyPath: m_AnchorMax.x
      value: 0.58900005
      objectReference: {fileID: 0}
    - target: {fileID: 6067298152650821753, guid: 413468723f91ce9418cfc592a7287492,
        type: 3}
      propertyPath: m_AnchorMax.y
      value: 0.619
      objectReference: {fileID: 0}
    - target: {fileID: 6067298152650821753, guid: 413468723f91ce9418cfc592a7287492,
        type: 3}
      propertyPath: m_Pivot.x
      value: 0.5
      objectReference: {fileID: 0}
    - target: {fileID: 6067298152650821753, guid: 413468723f91ce9418cfc592a7287492,
        type: 3}
      propertyPath: m_Pivot.y
      value: -0.00000012665987
      objectReference: {fileID: 0}
    - target: {fileID: 8932703290116869782, guid: 413468723f91ce9418cfc592a7287492,
        type: 3}
      propertyPath: _ContextOption
      value: 
      objectReference: {fileID: 11400000, guid: ceb964120d954e648a256a4466718bbc,
        type: 2}
    m_RemovedComponents: []
  m_SourcePrefab: {fileID: 100100000, guid: 413468723f91ce9418cfc592a7287492, type: 3}
